…
city_model_results
```

    ## # A tibble: 47 × 9
    ##    city_state      term     estimate std.error statistic  p.value    OR CI_lower
    ##    <chr>           <chr>       <dbl>     <dbl>     <dbl>    <dbl> <dbl>    <dbl>
    ##  1 Albuquerque, NM victim_…  5.70e-1     0.385  1.48     1.39e- 1 1.77     0.831
    ##  2 Atlanta, GA     victim_…  7.71e-5     0.194  0.000397 1.00e+ 0 1.00     0.684
    ##  3 Baltimore, MD   victim_… -8.54e-1     0.138 -6.18     6.26e-10 0.426    0.325
    ##  4 Baton Rouge, LA victim_… -9.64e-1     0.306 -3.15     1.65e- 3 0.381    0.209
    ##  5 Birmingham, AL  victim_… -1.39e-1     0.212 -0.657    5.11e- 1 0.870    0.574
    ##  6 Boston, MA      victim_… -3.95e-1     0.326 -1.21     2.26e- 1 0.674    0.356
    ##  7 Buffalo, NY     victim_… -6.53e-1     0.299 -2.18     2.90e- 2 0.521    0.290
    ##  8 Charlotte, NC   victim_… -1.23e-1     0.236 -0.524    6.00e- 1 0.884    0.557
    ##  9 Chicago, IL     victim_… -8.91e-1     0.102 -8.77     1.86e-18 0.410    0.336
    ## 10 Cincinnati, OH  victim_… -9.17e-1     0.269 -3.41     6.49e- 4 0.400    0.236
    ## # ℹ 37 more rows
    ## # ℹ 1 more variable: CI_upper <dbl>
…
